[
  {
    "id": 1,
    "date": "2023-05-22T00:00:00+00:00",
    "equipeDomicile": 2,
    "equipeVisiteur": 15,
    "score_domicile": 4,
    "score_visiteur": 4,
    "tournoi": 1,
    "scoreDomicile": 4,
    "scoreVisiteur": 4
  },
  {
    "id": 2,
    "date": "2023-05-22T00:00:00+00:00",
    "equipeDomicile": 7,
    "equipeVisiteur": 13,
    "score_domicile": 1,
    "score_visiteur": 4,
    "tournoi": 1,
    "scoreDomicile": 1,
    "scoreVisiteur": 4
  },
  {
    "id": 3,
    "date": "2023-05-22T00:00:00+00:00",
    "equipeDomicile": 10,
    "equipeVisiteur": 17,
    "score_domicile": 3,
    "score_visiteur": 2,
    "tournoi": 1,
    "scoreDomicile": 3,
    "scoreVisiteur": 2
  },
  {
    "id": 4,
    "date": "2023-05-22T00:00:00+00:00",
    "equipeDomicile": 8,
    "equipeVisiteur": 5,
    "score_domicile": 2,
    "score_visiteur": 1,
    "tournoi": 1,
    "scoreDomicile": 2,
    "scoreVisiteur": 1
  },
  {
    "id": 5,
    "date": "2023-05-22T00:00:00+00:00",
    "equipeDomicile": 4,
    "equipeVisiteur": 3,
    "score_domicile": 4,
    "score_visiteur": 4,
    "tournoi": 1,
    "scoreDomicile": 4,
    "scoreVisiteur": 4
  },
  {
    "id": 6,
    "date": "2023-05-22T00:00:00+00:00",
    "equipeDomicile": 12,
    "equipeVisiteur": 15,
    "score_domicile": 1,
    "score_visiteur": 3,
    "tournoi": 1,
    "scoreDomicile": 1,
    "scoreVisiteur": 3
  },
  {
    "id": 7,
    "date": "2023-05-22T00:00:00+00:00",
    "equipeDomicile": 6,
    "equipeVisiteur": 18,
    "score_domicile": 4,
    "score_visiteur": 3,
    "tournoi": 1,
    "scoreDomicile": 4,
    "scoreVisiteur": 3
  },
  {
    "id": 8,
    "date": "2023-05-22T00:00:00+00:00",
    "equipeDomicile": 16,
    "equipeVisiteur": 11,
    "score_domicile": 3,
    "score_visiteur": 1,
    "tournoi": 1,
    "scoreDomicile": 3,
    "scoreVisiteur": 1
  },
  {
    "id": 9,
    "date": "2023-05-22T00:00:00+00:00",
    "equipeDomicile": 4,
    "equipeVisiteur": 15,
    "score_domicile": 2,
    "score_visiteur": 1,
    "tournoi": 2,
    "scoreDomicile": 2,
    "scoreVisiteur": 1
  },
  {
    "id": 10,
    "date": "2023-05-22T00:00:00+00:00",
    "equipeDomicile": 8,
    "equipeVisiteur": 11,
    "score_domicile": 2,
    "score_visiteur": 2,
    "tournoi": 2,
    "scoreDomicile": 2,
    "scoreVisiteur": 2
  },
  {
    "id": 11,
    "date": "2023-05-22T00:00:00+00:00",
    "equipeDomicile": 3,
    "equipeVisiteur": 16,
    "score_domicile": 3,
    "score_visiteur": 2,
    "tournoi": 2,
    "scoreDomicile": 3,
    "scoreVisiteur": 2
  },
  {
    "id": 12,
    "date": "2023-05-22T00:00:00+00:00",
    "equipeDomicile": 13,
    "equipeVisiteur": 15,
    "score_domicile": 1,
    "score_visiteur": 4,
    "tournoi": 2,
    "scoreDomicile": 1,
    "scoreVisiteur": 4
  },
  {
    "id": 13,
    "date": "2023-05-22T00:00:00+00:00",
    "equipeDomicile": 5,
    "equipeVisiteur": 6,
    "score_domicile": 4,
    "score_visiteur": 3,
    "tournoi": 2,
    "scoreDomicile": 4,
    "scoreVisiteur": 3
  },
  {
    "id": 14,
    "date": "2023-05-22T00:00:00+00:00",
    "equipeDomicile": 14,
    "equipeVisiteur": 1,
    "score_domicile": 4,
    "score_visiteur": 1,
    "tournoi": 2,
    "scoreDomicile": 4,
    "scoreVisiteur": 1
  },
  {
    "id": 15,
    "date": "2023-05-22T00:00:00+00:00",
    "equipeDomicile": 17,
    "equipeVisiteur": 10,
    "score_domicile": 4,
    "score_visiteur": 1,
    "tournoi": 2,
    "scoreDomicile": 4,
    "scoreVisiteur": 1
  },
  {
    "id": 16,
    "date": "2023-05-22T00:00:00+00:00",
    "equipeDomicile": 7,
    "equipeVisiteur": 2,
    "score_domicile": 1,
    "score_visiteur": 4,
    "tournoi": 2,
    "scoreDomicile": 1,
    "scoreVisiteur": 4
  },
  {
    "id": 17,
    "date": "2023-05-22T00:00:00+00:00",
    "equipeDomicile": 2,
    "equipeVisiteur": 15,
    "score_domicile": 3,
    "score_visiteur": 2,
    "tournoi": 3,
    "scoreDomicile": 3,
    "scoreVisiteur": 2
  },
  {
    "id": 18,
    "date": "2023-05-22T00:00:00+00:00",
    "equipeDomicile": 11,
    "equipeVisiteur": 3,
    "score_domicile": 4,
    "score_visiteur": 2,
    "tournoi": 3,
    "scoreDomicile": 4,
    "scoreVisiteur": 2
  },
  {
    "id": 19,
    "date": "2023-05-22T00:00:00+00:00",
    "equipeDomicile": 8,
    "equipeVisiteur": 9,
    "score_domicile": 2,
    "score_visiteur": 1,
    "tournoi": 3,
    "scoreDomicile": 2,
    "scoreVisiteur": 1
  },
  {
    "id": 20,
    "date": "2023-05-22T00:00:00+00:00",
    "equipeDomicile": 12,
    "equipeVisiteur": 16,
    "score_domicile": 4,
    "score_visiteur": 1,
    "tournoi": 3,
    "scoreDomicile": 4,
    "scoreVisiteur": 1
  },
  {
    "id": 21,
    "date": "2023-05-22T00:00:00+00:00",
    "equipeDomicile": 1,
    "equipeVisiteur": 18,
    "score_domicile": 1,
    "score_visiteur": 2,
    "tournoi": 3,
    "scoreDomicile": 1,
    "scoreVisiteur": 2
  },
  {
    "id": 22,
    "date": "2023-05-22T00:00:00+00:00",
    "equipeDomicile": 10,
    "equipeVisiteur": 13,
    "score_domicile": 1,
    "score_visiteur": 3,
    "tournoi": 3,
    "scoreDomicile": 1,
    "scoreVisiteur": 3
  },
  {
    "id": 23,
    "date": "2023-05-22T00:00:00+00:00",
    "equipeDomicile": 15,
    "equipeVisiteur": 7,
    "score_domicile": 1,
    "score_visiteur": 2,
    "tournoi": 3,
    "scoreDomicile": 1,
    "scoreVisiteur": 2
  },
  {
    "id": 24,
    "date": "2023-05-22T00:00:00+00:00",
    "equipeDomicile": 5,
    "equipeVisiteur": 17,
    "score_domicile": 1,
    "score_visiteur": 1,
    "tournoi": 3,
    "scoreDomicile": 1,
    "scoreVisiteur": 1
  },
  {
    "id": 25,
    "date": "2023-05-22T00:00:00+00:00",
    "equipeDomicile": 12,
    "equipeVisiteur": 14,
    "score_domicile": 4,
    "score_visiteur": 4,
    "tournoi": 4,
    "scoreDomicile": 4,
    "scoreVisiteur": 4
  },
  {
    "id": 26,
    "date": "2023-05-22T00:00:00+00:00",
    "equipeDomicile": 16,
    "equipeVisiteur": 11,
    "score_domicile": 3,
    "score_visiteur": 3,
    "tournoi": 4,
    "scoreDomicile": 3,
    "scoreVisiteur": 3
  },
  {
    "id": 27,
    "date": "2023-05-22T00:00:00+00:00",
    "equipeDomicile": 6,
    "equipeVisiteur": 9,
    "score_domicile": 1,
    "score_visiteur": 1,
    "tournoi": 4,
    "scoreDomicile": 1,
    "scoreVisiteur": 1
  },
  {
    "id": 28,
    "date": "2023-05-22T00:00:00+00:00",
    "equipeDomicile": 8,
    "equipeVisiteur": 7,
    "score_domicile": 1,
    "score_visiteur": 3,
    "tournoi": 4,
    "scoreDomicile": 1,
    "scoreVisiteur": 3
  },
  {
    "id": 29,
    "date": "2023-05-22T00:00:00+00:00",
    "equipeDomicile": 17,
    "equipeVisiteur": 10,
    "score_domicile": 3,
    "score_visiteur": 4,
    "tournoi": 4,
    "scoreDomicile": 3,
    "scoreVisiteur": 4
  },
  {
    "id": 30,
    "date": "2023-05-22T00:00:00+00:00",
    "equipeDomicile": 13,
    "equipeVisiteur": 2,
    "score_domicile": 2,
    "score_visiteur": 2,
    "tournoi": 4,
    "scoreDomicile": 2,
    "scoreVisiteur": 2
  }
]